module gitlab.com/forrest2/fullstack

go 1.13

require (
	github.com/badoux/checkmail v0.0.0-20181210160741-9661bd69e9ad
	github.com/dgrijalva/jwt-go v3.2.0+incompatible
	github.com/gorilla/mux v1.7.3 // indirect
	github.com/jinzhu/gorm v1.9.11
	github.com/joho/godotenv v1.3.0 // indirect
	golang.org/x/crypto v0.0.0-20190926180335-cea2066c6411
	gopkg.in/go-playground/assert.v1 v1.2.1 // indirect
)
